{
  "genesis_time": "2019-09-26T18:33:16.598923327Z",
  "chain_id": "e3-2000",
  "consensus_params": {
    "block": {
      "max_bytes": "22020096",
      "max_gas": "-1",
      "time_iota_ms": "1000"
    },
    "evidence": {
      "max_age": "100000"
    },
    "validator": {
      "pub_key_types": [
        "ed25519"
      ]
    }
  },
  "app_hash": "",
  "app_state": {
    "accounts": [
      {
        "address": "cosmos1ad6ltf4vk4etdhzhtcqzt5pd6ajvl96r22d0tl",
        "coins": [
          {
            "denom": "stake",
            "amount": "12345678912345"
          }
        ],
        "sequence_number": "0",
        "account_number": "0",
        "original_vesting": null,
        "delegated_free": null,
        "delegated_vesting": null,
        "start_time": "0",
        "end_time": "0"
      }
    ],
    "auth": {
      "collected_fees": null,
      "params": {
        "max_memo_characters": "256",
        "tx_sig_limit": "7",
        "tx_size_cost_per_byte": "10",
        "sig_verify_cost_ed25519": "590",
        "sig_verify_cost_secp256k1": "1000"
      }
    },
    "bank": {
      "send_enabled": true
    },
    "staking": {
      "pool": {
        "not_bonded_tokens": "12345678912345",
        "bonded_tokens": "0"
      },
      "params": {
        "unbonding_time": "259200000000000",
        "max_validators": 100,
        "max_entries": 7,
        "bond_denom": "stake"
      },
      "last_total_power": "0",
      "last_validator_powers": null,
      "validators": null,
      "delegations": null,
      "unbonding_delegations": null,
      "redelegations": null,
      "exported": false
    },
    "mint": {
      "minter": {
        "inflation": "0.130000000000000000",
        "annual_provisions": "0.000000000000000000"
      },
      "params": {
        "mint_denom": "stake",
        "inflation_rate_change": "0.130000000000000000",
        "inflation_max": "0.200000000000000000",
        "inflation_min": "0.070000000000000000",
        "goal_bonded": "0.670000000000000000",
        "blocks_per_year": "6311520"
      }
    },
    "distr": {
      "fee_pool": {
        "community_pool": null
      },
      "community_tax": "0.020000000000000000",
      "base_proposer_reward": "0.010000000000000000",
      "bonus_proposer_reward": "0.040000000000000000",
      "withdraw_addr_enabled": true,
      "delegator_withdraw_infos": null,
      "previous_proposer": "",
      "outstanding_rewards": null,
      "validator_accumulated_commissions": null,
      "validator_historical_rewards": null,
      "validator_current_rewards": null,
      "delegator_starting_infos": null,
      "validator_slash_events": null
    },
    "gov": {
      "starting_proposal_id": "1",
      "deposits": null,
      "votes": null,
      "proposals": null,
      "deposit_params": {
        "min_deposit": [
          {
            "denom": "stake",
            "amount": "10000000"
          }
        ],
        "max_deposit_period": "172800000000000"
      },
      "voting_params": {
        "voting_period": "172800000000000"
      },
      "tally_params": {
        "quorum": "0.334000000000000000",
        "threshold": "0.500000000000000000",
        "veto": "0.334000000000000000"
      }
    },
    "crisis": {
      "constant_fee": {
        "denom": "stake",
        "amount": "1000"
      }
    },
    "slashing": {
      "params": {
        "max_evidence_age": "120000000000",
        "signed_blocks_window": "100",
        "min_signed_per_window": "0.500000000000000000",
        "downtime_jail_duration": "600000000000",
        "slash_fraction_double_sign": "0.050000000000000000",
        "slash_fraction_downtime": "0.010000000000000000"
      },
      "signing_infos": {},
      "missed_blocks": {}
    },
    "gentxs": [
      {
        "type": "auth/StdTx",
        "value": {
          "msg": [
            {
              "type": "cosmos-sdk/MsgCreateValidator",
              "value": {
                "description": {
                  "moniker": "moniker1",
                  "identity": "",
                  "website": "",
                  "details": ""
                },
                "commission": {
                  "rate": "0.100000000000000000",
                  "max_rate": "0.200000000000000000",
                  "max_change_rate": "0.010000000000000000"
                },
                "min_self_delegation": "1",
                "delegator_address": "cosmos1ad6ltf4vk4etdhzhtcqzt5pd6ajvl96r22d0tl",
                "validator_address": "cosmosvaloper1ad6ltf4vk4etdhzhtcqzt5pd6ajvl96r07e68v",
                "pubkey": "cosmosvalconspub1zcjduepqyyef82s3j2dw4zarsps7439kfr3n89rcuxegs3s0590tgq5ryj3qfje9fy",
                "value": {
                  "denom": "stake",
                  "amount": "100000000"
                }
              }
            }
          ],
          "fee": {
            "amount": null,
            "gas": "200000"
          },
          "signatures": [
            {
              "pub_key": {
                "type": "tendermint/PubKeySecp256k1",
                "value": "A1R30HfVOY/Ysb5cXL7N0+x1kx1+/IKDu11bvb0zek0M"
              },
              "signature": "7PJE6xiJt8t8OQPIoQIgbUJHh3el78ODudvqaoqphERizJkq5VPrMndMSkVkvdnQ3kQNK6o6V2vIDW+b6cZCkg=="
            }
          ],
          "memo": "2dd921619dc1077ce763e399667c49fa684a2412@172.26.36.169:26656"
        }
      }
    ]
  }
}